<svg class="logo__ico" xmlns="http://www.w3.org/2000/svg" width="115" height="82" viewBox="0 0 115 82">
  <path class="logo__background" d="M109.757,11.129C103.737,3.69,79.966,1.255,70.025.559c-19.442-1.367-38-.1-47.276,3.231-5.227,1.876-8.683,8.293-10.288,19.072-1.133,7.63-1.357,17.353-.654,28.905L0.458,66.71A2.2,2.2,0,0,0,2.1,70.241c0.654,0.035,1.347.053,2.062,0.053a75.467,75.467,0,0,0,12.161-1.166c4.44,5.83,11.667,9.19,16.632,10.308C40.064,81.04,51.836,82,64.443,82c2.632,0,5.26-.045,7.812-0.135,12.27-.406,28.054-1.877,33.563-6.526,6.939-5.853,8.665-26.845,8.942-30.994C115.561,32.27,114.668,17.2,109.757,11.129Z"/>
  <path class="logo__yelds" fill="#ffffff" fill-opacity="0.5" d="M69.47,52.485a6.911,6.911,0,0,0-.714.038,5.566,5.566,0,0,0,.136-1.01c-3.7.9-3.4,3.322-3.375,3.492V55.02C68.093,55.583,69.089,53.8,69.47,52.485Zm24.289,9.888a0.643,0.643,0,0,1,.731-0.753,0.676,0.676,0,0,1,.519.947,0.63,0.63,0,0,1-.73.568A0.651,0.651,0,0,1,93.759,62.373ZM89.5,71.055a0.387,0.387,0,0,1-.008-0.633,0.41,0.41,0,0,1,.627.185,0.377,0.377,0,0,1-.071.552A0.4,0.4,0,0,1,89.5,71.055Zm-61.151-10.2a0.553,0.553,0,0,1,.63-0.648,0.581,0.581,0,0,1,.448.812,0.544,0.544,0,0,1-.628.488A0.553,0.553,0,0,1,28.348,60.858Zm3.484,6.776a0.641,0.641,0,0,1,.731-0.753,0.677,0.677,0,0,1,.52.947,0.629,0.629,0,0,1-.73.567A0.653,0.653,0,0,1,31.832,67.634ZM28.869,55.988s-2.38.833-3.856-2.673C26.378,53.164,28.416,53.4,28.869,55.988ZM92.341,67.522s2.214-1.2,4.237,2.021C95.257,69.908,93.208,70,92.341,67.522Zm3.465-12.77a5.558,5.558,0,0,0,.136-1.01c-3.7.9-3.4,3.322-3.375,3.494V57.25c2.578,0.565,3.567-1.217,3.948-2.536C96.266,54.717,96.025,54.729,95.806,54.752ZM24.546,66.372a5.558,5.558,0,0,0-.378.947c3.812,0,4.1-2.419,4.113-2.59,0,0,0-.01,0-0.015-2.358-1.159-3.753.337-4.431,1.524A6.934,6.934,0,0,0,24.546,66.372Z"/>
  <path class="logo__text" fill="#ffffff" d="M31.835,64.915a0.689,0.689,0,0,1-.216-0.481,0.735,0.735,0,0,1,.18-0.541,0.705,0.705,0,0,1,.514-0.242,1.2,1.2,0,0,0,1.035-.472,2.611,2.611,0,0,0,.2-1.254V61.272l-0.011-.312-0.011-.3a16.265,16.265,0,0,1,.114-2.955,0.711,0.711,0,0,1,.3-0.488,0.7,0.7,0,0,1,.543-0.135,0.733,0.733,0,0,1,.626.828l0,0.019a15.652,15.652,0,0,0-.1,2.685l0.009,0.312,0.01,0.331c0,0.241.007,0.468,0.007,0.683v0.369c-0.01.162-.023,0.314-0.038,0.456a3.174,3.174,0,0,1-.3,1.025,2.5,2.5,0,0,1-2.306,1.34h-0.1A0.722,0.722,0,0,1,31.835,64.915ZM40.15,65.6a0.709,0.709,0,0,1-.49-0.3,0.675,0.675,0,0,1-.122-0.553,18.65,18.65,0,0,0,.218-4.5,3.892,3.892,0,0,0-.336-1.511,2.209,2.209,0,0,0-.761-0.812,4.8,4.8,0,0,0-.435-0.241,3.005,3.005,0,0,0-.383-0.135,6.134,6.134,0,0,0-1.157-.256l-0.612-.068-0.6-.046a20.531,20.531,0,0,0-2.578-.051,0.734,0.734,0,0,1-.778-0.71,0.737,0.737,0,0,1,.7-0.775h0.006a22.011,22.011,0,0,1,2.754.051l0.33,0.03,0.331,0.02c0.259,0.023.49,0.05,0.689,0.081a7.621,7.621,0,0,1,1.4.3,4.039,4.039,0,0,1,2.423,1.913,5.269,5.269,0,0,1,.5,2.1A20.6,20.6,0,0,1,41.007,65a0.686,0.686,0,0,1-.271.452,0.724,0.724,0,0,1-.509.164Zm3.932,0.288a0.731,0.731,0,0,1-.5-0.224,0.7,0.7,0,0,1-.2-0.5q-0.034-1.98.072-3.874a39.982,39.982,0,0,1,.521-4.625,0.676,0.676,0,0,1,.3-0.477,0.733,0.733,0,0,1,.556-0.135,0.77,0.77,0,0,1,.611.866,35.968,35.968,0,0,0-.5,4.464q-0.1,1.836-.076,3.758a0.692,0.692,0,0,1-.209.533,0.71,0.71,0,0,1-.521.222Zm3.677-.018a0.709,0.709,0,0,1-.5-0.246,0.7,0.7,0,0,1-.193-0.518q0.087-3.668,2.4-5.291a0.734,0.734,0,0,1,.555-0.122,0.749,0.749,0,0,1,.479.3,0.689,0.689,0,0,1,.122.553,0.677,0.677,0,0,1-.3.479q-1.7,1.193-1.764,4.121a0.716,0.716,0,0,1-.227.513,0.734,0.734,0,0,1-.531.2Zm6.8,0.308a9.787,9.787,0,0,1-2.351-2.151,17.468,17.468,0,0,1-1.5-2.919,12.038,12.038,0,0,0-1.258-2.289,3.025,3.025,0,0,0-.9-0.855,0.729,0.729,0,0,1-.315-0.984l0-.009a0.714,0.714,0,0,1,.434-0.364,0.68,0.68,0,0,1,.572.055,4.806,4.806,0,0,1,1.685,1.691,14.652,14.652,0,0,1,1.127,2.164,16.578,16.578,0,0,0,1.308,2.57,8.531,8.531,0,0,0,2.044,1.88,0.714,0.714,0,0,1,.3.476A0.748,0.748,0,0,1,55.6,66a0.71,0.71,0,0,1-.654.311A0.68,0.68,0,0,1,54.562,66.179Zm-1.9-4.307a0.682,0.682,0,0,1,.045-0.563,0.668,0.668,0,0,1,.433-0.362,1.774,1.774,0,0,0,.885-1.2,5.824,5.824,0,0,0,.331-2.045,0.721,0.721,0,0,1,.218-0.523,0.688,0.688,0,0,1,.522-0.221,0.732,0.732,0,0,1,.746.717c0,0.007,0,.014,0,0.02a7.368,7.368,0,0,1-.447,2.653,2.976,2.976,0,0,1-1.8,2,0.729,0.729,0,0,1-.943-0.476h0.005Zm7.554-.054a0.677,0.677,0,0,1-.448-0.349,0.694,0.694,0,0,1-.083-0.56,6.989,6.989,0,0,0,.231-1.681,1.267,1.267,0,0,0,0-.245,0.751,0.751,0,0,0-.026-0.215,0.482,0.482,0,0,0-.136-0.193,0.521,0.521,0,0,0-.075-0.054,0.235,0.235,0,0,0-.066-0.032,2.042,2.042,0,0,0-.669-0.1,0.748,0.748,0,0,1-.522-0.246,0.7,0.7,0,0,1-.191-0.541,0.736,0.736,0,0,1,.247-0.511,0.706,0.706,0,0,1,.543-0.191l0.262,0.016q0.167,0.009.3,0.028a2.449,2.449,0,0,1,.626.175,1.869,1.869,0,0,1,1.108,1.208,2.408,2.408,0,0,1,.087.483,4.181,4.181,0,0,1,.012.449,8.919,8.919,0,0,1-.281,2.019,0.692,0.692,0,0,1-.29.421,0.721,0.721,0,0,1-.477.135Zm8.611,5.566a0.739,0.739,0,0,1-.471-0.935,13.959,13.959,0,0,0,.7-4.274,3.68,3.68,0,0,0-.2-1.415,2.8,2.8,0,0,0-1.827-1.447,7.46,7.46,0,0,0-1.4-.291c-0.213-.026-0.457-0.047-0.73-0.064l-0.73-.045H64.166a0.7,0.7,0,0,1-.5-0.245,0.686,0.686,0,0,1-.193-0.529,0.748,0.748,0,0,1,.777-0.7l0.389,0.023,0.4,0.024c0.3,0.019.571,0.045,0.814,0.08a8.126,8.126,0,0,1,1.65.345,4.138,4.138,0,0,1,2.713,2.261,3.612,3.612,0,0,1,.28,1.031,7.287,7.287,0,0,1,.046.988,15.532,15.532,0,0,1-.78,4.727,0.678,0.678,0,0,1-.745.51A0.647,0.647,0,0,1,68.827,67.384Zm11.213,0.61a24.821,24.821,0,0,0-6.877-.549,0.735,0.735,0,0,1-.777-0.689s0-.008,0-0.011a0.717,0.717,0,0,1,.179-0.534,0.742,0.742,0,0,1,.514-0.252,26.353,26.353,0,0,1,7.285.593,0.743,0.743,0,0,1,.571.882h0a0.747,0.747,0,0,1-.281.431,0.737,0.737,0,0,1-.488.145Zm-1.671-.947a0.714,0.714,0,0,1-.407-0.4,0.683,0.683,0,0,1-.014-0.567,9.176,9.176,0,0,0,.626-2.544,4.646,4.646,0,0,0-.122-1.83,3,3,0,0,0-1.772-1.853,5.1,5.1,0,0,0-2.731-.271,0.732,0.732,0,0,1-.543-0.135,0.765,0.765,0,0,1-.292-0.5,0.709,0.709,0,0,1,.151-0.541,0.694,0.694,0,0,1,.487-0.283,6.6,6.6,0,0,1,3.515.361,4.775,4.775,0,0,1,1.621,1.132,4.378,4.378,0,0,1,.981,1.638,6.156,6.156,0,0,1,.183,2.418,10.883,10.883,0,0,1-.715,2.953,0.678,0.678,0,0,1-.731.461,0.705,0.705,0,0,1-.237-0.053v0Zm8.771,1.059a4.585,4.585,0,0,1-.091-2.179,3.807,3.807,0,0,1,.857-1.848,3.749,3.749,0,0,1,.3-0.312l0.3-.284a3.969,3.969,0,0,0,.669-0.709,3.6,3.6,0,0,0,.289-1.98,0.66,0.66,0,0,0-.163-0.059,14.406,14.406,0,0,0-5-.271,0.757,0.757,0,0,1-.574-0.2,0.715,0.715,0,0,1-.24-0.55V59.245c0.008-.345.019-0.684,0.034-1.021a21.838,21.838,0,0,1,.21-2.454,0.707,0.707,0,0,1,.3-0.488,0.694,0.694,0,0,1,.555-0.122,0.722,0.722,0,0,1,.482.292,0.736,0.736,0,0,1,.136.555,14.167,14.167,0,0,0-.148,1.443q-0.041.676-.061,1.468a13.342,13.342,0,0,1,4.717.4,1.875,1.875,0,0,1,.933.555,1.16,1.16,0,0,1,.289.7L90.961,60.9v0.361a7.519,7.519,0,0,1-.028.768,3.366,3.366,0,0,1-.95,2.1l-0.228.239-0.243.212a6.729,6.729,0,0,0-.488.478,2.323,2.323,0,0,0-.514,1.2,3.1,3.1,0,0,0,.068,1.438,0.684,0.684,0,0,1-.064.561,0.71,0.71,0,0,1-.442.362,0.874,0.874,0,0,1-.256.023A0.678,0.678,0,0,1,87.14,68.106Zm-53.7-52.037a2.044,2.044,0,0,1,2.328,1.251,2.156,2.156,0,0,0,3.816-2A6.356,6.356,0,0,0,32.38,11.9c-2.7.683-5.834,3.51-5.752,9.229,0.007,0.494.008,1,0,1.511a11.368,11.368,0,0,1-2.116-.421,2.152,2.152,0,0,0-2.191,3.7,11.529,11.529,0,0,0,4.2,1.047c-0.38,8.9-1.6,18.447-1.617,18.564a2.149,2.149,0,0,0,1.86,2.406h0c0.062,0.008.123,0.014,0.184,0.016a2.155,2.155,0,0,0,2.23-1.873c0.062-.483,1.255-9.8,1.643-18.75,0.478,0.027.956,0.051,1.433,0.072,0.876,0.038,1.745.065,2.578,0.087a2.151,2.151,0,0,0,.148-4.3H34.939c-1.541-.038-2.863-0.093-4-0.158V21.074C30.9,18.063,32.17,16.391,33.443,16.069Zm70,25.253a2.164,2.164,0,0,0-2.978.663,1.5,1.5,0,0,1-1.773.812c-0.985-.338-1.867-1.8-1.617-4.307V38.473a192.84,192.84,0,0,0,.37-22.061,2.157,2.157,0,0,0-4.31.176c0,0.069.155,3.848,0.152,8.677a7.57,7.57,0,0,0-5.8-.387,8.986,8.986,0,0,0-5.155,4.2,12.886,12.886,0,0,0-1.385,6.98c0.286,5.864,3.462,9.494,8.491,9.71h0a6.744,6.744,0,0,0,4.667-1.419,6.416,6.416,0,0,0,3.181,2.517,5.579,5.579,0,0,0,1.585.3,5.934,5.934,0,0,0,5.236-2.875,2.146,2.146,0,0,0-.665-2.966h0Zm-13.814.147H89.622c-2.723-.118-4.193-2.01-4.371-5.624-0.182-3.725,1.027-6.043,3.593-6.89a3.228,3.228,0,0,1,2.642.226,3.938,3.938,0,0,1,1.692,2.673c-0.075,2.106-.2,4.193-0.383,6.1C92.051,41.563,90.6,41.515,89.629,41.469ZM49.23,21.8a9.509,9.509,0,0,0-7.62,1.83c-2.343,1.937-3.681,5.223-3.867,9.5-0.271,6.231,2.608,10.343,8.109,11.58a10.276,10.276,0,0,0,1.814.246c3.38,0.146,7.306-1.531,9.715-8.657a11.657,11.657,0,0,0-.857-9.881A10.028,10.028,0,0,0,49.23,21.8Zm4.063,13.12c-1.951,5.773-4.378,6.065-6.493,5.589-2.335-.523-4.983-1.816-4.748-7.2h0c0.136-3.031.932-5.236,2.306-6.377a4.805,4.805,0,0,1,3.379-.966,8.673,8.673,0,0,1,.874.082,5.719,5.719,0,0,1,4.233,2.615,7.378,7.378,0,0,1,.445,6.26Zm17.038-11.9a9.51,9.51,0,0,0-7.62,1.83c-2.343,1.937-3.679,5.222-3.867,9.5h0c-0.271,6.231,2.608,10.343,8.109,11.58a10.286,10.286,0,0,0,1.814.246c3.379,0.146,7.306-1.531,9.715-8.657a11.657,11.657,0,0,0-.858-9.881A10.027,10.027,0,0,0,70.332,23.025Zm4.07,13.12c-1.951,5.773-4.378,6.064-6.493,5.589-2.334-.525-4.983-1.816-4.748-7.2,0.136-3.031.932-5.237,2.306-6.378a5.271,5.271,0,0,1,4.253-.883,5.72,5.72,0,0,1,4.234,2.615,7.442,7.442,0,0,1,.441,6.26Z"/>
</svg>
