<?xml version="1.0" encoding="utf-8"?>
<!-- Generator: Adobe Illustrator 22.1.0, SVG Export Plug-In . SVG Version: 6.00 Build 0)  -->
<svg version="1.1" id="Слой_1" xmlns="http://www.w3.org/2000/svg" xmlns:xlink="http://www.w3.org/1999/xlink" x="0px" y="0px"
	 viewBox="0 0 36.6 30" style="enable-background:new 0 0 36.6 30;" xml:space="preserve">
<style type="text/css">
	.st0{fill:#CCCCCC;}
	.st1{fill:none;}
	.st2{fill:#A2A2A2;}
	.st3{fill:#7E7E7E;}
	.st4{opacity:0.68;fill:#CCCCCC;enable-background:new    ;}
	.st5{opacity:0.7;fill:#A2A2A2;enable-background:new    ;}
	.st6{clip-path:url(#SVGID_2_);}
</style>
<g id="Mastercard_grey" transform="translate(1565.623 -1106.749)">
	<g id="Group_154" transform="translate(-1565.623 1106.748)">
		<g id="Group_150" transform="translate(1.976 25.361)">
			<path id="Path_92" class="st2" d="M33.9,3.5L33.9,3.5L33.9,3.5C34,3.6,34,3.6,34,3.6c0,0,0,0,0,0c0,0,0,0,0,0
				C34,3.5,34,3.5,33.9,3.5L33.9,3.5z M34,3.5C34,3.5,34,3.5,34,3.5c0.1,0,0.1,0.1,0.1,0.1c0,0,0,0,0,0.1c0,0,0,0-0.1,0l0.1,0.1H34
				L34,3.6h0v0.1h-0.1V3.5H34z M34,3.8C34,3.8,34,3.8,34,3.8c0.1,0,0.1,0,0.2-0.1c0,0,0,0,0-0.1c0,0,0-0.1,0-0.1c0,0,0-0.1,0-0.1
				c0,0,0-0.1,0-0.1c0,0,0,0-0.1-0.1c0,0-0.1,0-0.1,0c0,0-0.1,0-0.1,0c0,0-0.1,0-0.1,0.1c0,0,0,0,0,0.1c0,0,0,0.1,0,0.1
				c0,0,0,0.1,0,0.1c0,0,0,0.1,0,0.1C33.8,3.8,33.8,3.8,34,3.8C33.9,3.8,33.9,3.8,34,3.8 M34,3.3c0,0,0.1,0,0.1,0c0,0,0.1,0,0.1,0.1
				c0,0,0,0.1,0.1,0.1c0,0,0,0.1,0,0.1c0,0,0,0.1,0,0.1c0,0,0,0.1-0.1,0.1c0,0-0.1,0-0.1,0.1c0,0-0.1,0-0.1,0c0,0-0.1,0-0.1,0
				c0,0-0.1,0-0.1-0.1c0,0,0-0.1-0.1-0.1c0,0,0-0.1,0-0.1c0,0,0-0.1,0-0.1c0,0,0-0.1,0.1-0.1c0,0,0.1,0,0.1-0.1
				C33.9,3.3,33.9,3.3,34,3.3 M5.9,2.2c0-0.5,0.3-0.9,0.8-1c0,0,0,0,0.1,0c0.5,0,0.9,0.4,0.9,0.9c0,0,0,0,0,0.1c0,0.5-0.3,0.9-0.8,1
				c0,0,0,0-0.1,0C6.3,3.2,5.9,2.8,5.9,2.2C5.9,2.3,5.9,2.2,5.9,2.2 M8.4,2.2V0.7H7.7v0.4c-0.2-0.3-0.6-0.5-1-0.4
				c-0.8,0-1.5,0.7-1.5,1.5c0,0,0,0,0,0.1c0,0.8,0.6,1.5,1.4,1.6c0,0,0,0,0.1,0c0.4,0,0.7-0.2,1-0.4v0.4h0.7V2.2z M30.4,2.2
				c0-0.5,0.3-0.9,0.8-1c0,0,0,0,0.1,0c0.5,0,0.9,0.4,0.9,0.9c0,0,0,0,0,0.1c0,0.5-0.3,0.9-0.8,1c0,0,0,0-0.1,0
				C30.9,3.2,30.4,2.8,30.4,2.2C30.4,2.3,30.4,2.2,30.4,2.2 M32.9,2.2v-2.7h-0.7v1.6c-0.2-0.3-0.6-0.5-1-0.4c-0.8,0-1.5,0.7-1.5,1.5
				c0,0,0,0,0,0.1c0,0.8,0.6,1.5,1.4,1.6c0,0,0,0,0.1,0c0.4,0,0.7-0.2,1-0.4v0.4h0.7V2.2z M16.5,1.2c0.4,0,0.8,0.3,0.8,0.7h-1.6
				C15.7,1.5,16,1.2,16.5,1.2 M16.5,0.6c-0.8,0-1.5,0.6-1.5,1.4c0,0,0,0.1,0,0.1c-0.1,0.8,0.6,1.5,1.4,1.6c0.1,0,0.1,0,0.2,0
				c0.5,0,0.9-0.1,1.2-0.4l-0.3-0.5c-0.2,0.2-0.6,0.3-0.9,0.3c-0.5,0-0.8-0.3-0.9-0.7h2.2c0-0.1,0-0.2,0-0.3
				c0.1-0.8-0.5-1.5-1.3-1.6C16.6,0.6,16.5,0.6,16.5,0.6 M24.4,2.2c0-0.5,0.3-0.9,0.8-1c0,0,0,0,0.1,0c0.5,0,0.9,0.4,0.9,0.9
				c0,0,0,0,0,0.1c0,0.5-0.3,0.9-0.8,1c0,0,0,0-0.1,0C24.8,3.2,24.4,2.8,24.4,2.2C24.4,2.3,24.4,2.2,24.4,2.2 M26.8,2.2V0.7h-0.7
				v0.4c-0.2-0.3-0.6-0.5-1-0.4c-0.8,0-1.5,0.7-1.5,1.5c0,0,0,0,0,0.1c0,0.8,0.6,1.5,1.4,1.6c0,0,0,0,0.1,0c0.4,0,0.7-0.2,1-0.4v0.4
				h0.7V2.2z M20.7,2.2c0,0.8,0.6,1.6,1.4,1.6c0.1,0,0.1,0,0.2,0c0.4,0,0.8-0.1,1.1-0.4l-0.3-0.5c-0.2,0.2-0.5,0.3-0.8,0.3
				c-0.5,0-0.9-0.4-0.9-0.9c0,0,0,0,0-0.1c0-0.5,0.3-0.9,0.8-1c0,0,0,0,0.1,0c0.3,0,0.6,0.1,0.8,0.3L23.4,1
				c-0.3-0.3-0.7-0.4-1.1-0.4c-0.8,0-1.6,0.6-1.6,1.4C20.7,2.1,20.7,2.2,20.7,2.2 M29.1,0.6c-0.3,0-0.6,0.2-0.8,0.4V0.7h-0.6v3h0.7
				V2c0-0.5,0.2-0.8,0.6-0.8c0.1,0,0.3,0,0.4,0.1l0.2-0.6C29.4,0.7,29.3,0.6,29.1,0.6 M11.6,1c-0.4-0.2-0.8-0.3-1.2-0.3
				c-0.8,0-1.3,0.4-1.3,1c0,0.5,0.4,0.8,1,0.9l0.3,0C10.8,2.6,11,2.7,11,2.9c0,0.2-0.2,0.4-0.7,0.4c-0.4,0-0.7-0.1-1-0.3L9,3.4
				c0.4,0.3,0.8,0.4,1.3,0.4c0.9,0,1.4-0.4,1.4-1c0-0.5-0.4-0.8-1.1-0.9l-0.3,0c-0.3,0-0.5-0.1-0.5-0.3c0-0.2,0.2-0.4,0.6-0.4
				c0.3,0,0.7,0.1,0.9,0.3L11.6,1z M20,0.6c-0.3,0-0.6,0.2-0.8,0.4V0.7h-0.6v3h0.7V2c0-0.5,0.2-0.8,0.6-0.8c0.1,0,0.3,0,0.4,0.1
				l0.2-0.6C20.3,0.7,20.2,0.6,20,0.6 M14.4,0.7h-1.1v-0.9h-0.7v0.9h-0.6v0.6h0.6v1.4c0,0.7,0.3,1.1,1,1.1c0.3,0,0.6-0.1,0.8-0.2
				L14.4,3c-0.2,0.1-0.4,0.2-0.6,0.2c-0.3,0-0.4-0.2-0.4-0.5V1.3h1.1L14.4,0.7z M4.7,3.7V1.8c0-0.6-0.4-1.2-1-1.2c0,0-0.1,0-0.1,0
				c-0.4,0-0.8,0.2-1.1,0.5c-0.2-0.3-0.6-0.6-1-0.5c-0.4,0-0.7,0.2-0.9,0.4V0.7h-0.7v3h0.7V2.1C0.5,1.7,0.8,1.3,1.2,1.3
				c0,0,0.1,0,0.1,0C1.7,1.3,2,1.5,2,2.1v1.7h0.7V2.1C2.6,1.7,2.8,1.3,3.2,1.3c0,0,0.1,0,0.1,0C3.8,1.3,4,1.5,4,2.1v1.7H4.7z"/>
		</g>
		<g id="Group_151" transform="translate(37.182 18.84)">
			<path id="Path_93" class="st0" d="M-0.9,0.3v-0.4H-1l-0.1,0.3l-0.1-0.3h-0.1v0.4h0.1v-0.3l0.1,0.3h0.1L-1-0.1L-0.9,0.3L-0.9,0.3z
				 M-1.6,0.3v-0.4h0.1v-0.1h-0.4v0.1h0.1L-1.6,0.3L-1.6,0.3z"/>
		</g>
		<path id="Path_94" class="st3" d="M23.3,21.1h-10v-18h10L23.3,21.1z"/>
		<g id="Group_152" transform="translate(0 0)">
			<path id="Path_95" class="st2" d="M14.1,12.2c0-3.5,1.6-6.8,4.4-9c-2-1.6-4.5-2.4-7.1-2.4C5.1,0.7,0,5.8,0,12.2c0,0,0,0,0,0
				c0,6.3,5.1,11.4,11.4,11.4c0,0,0,0,0,0c2.6,0,5-0.9,7.1-2.4C15.7,19,14.1,15.7,14.1,12.2"/>
		</g>
		<g id="Group_153" transform="translate(19.136 0)">
			<path id="Path_96" class="st0" d="M17.5,12.2c0,6.3-5.1,11.4-11.4,11.4c0,0,0,0,0,0c-2.6,0-5-0.9-7.1-2.4c2.8-2.2,4.4-5.5,4.4-9
				c0-3.5-1.6-6.8-4.4-9c2-1.6,4.5-2.4,7.1-2.4C12.4,0.7,17.5,5.8,17.5,12.2C17.5,12.1,17.5,12.1,17.5,12.2"/>
		</g>
	</g>
</g>
</svg>
